Project1
…
Now we have a named vector of 286 character strings. The names are per the various JWAP codes. The strings are the descriptions of the time interval. Lets convert into a tibble and apply StringToTime().

JWAPTibble <- as_tibble(names(JWAP)) # begin with just the names of JWAP, which are the codes
JWAPTibble <- mutate(JWAPTibble, string = JWAP) # add a column of the string content
JWAPTibble <- mutate(JWAPTibble, time = sapply(string, StringToTime)) # use StringToTime() to make the third column of time values
JWAPTibble <- mutate(JWAPTibble, value = as.numeric(value)) # convert value to numeric
JWAPTibble

# A tibble: 286 × 3
   value string                    time
   <dbl> <chr>                    <dbl>
 1   258 9:40 p.m. to 9:44 p.m.    1302
 2   260 9:50 p.m. to 9:54 p.m.    1312
 3   261 9:55 p.m. to 9:59 p.m.    1317
 4   274 11:00 p.m. to 11:04 p.m.  1382
 5    48 4:10 a.m. to 4:14 a.m.     252
 6    58 5:00 a.m. to 5:04 a.m.     302
 7    76 6:30 a.m. to 6:34 a.m.     392
 8    91 7:45 a.m. to 7:49 a.m.     467
 9    94 8:00 a.m. to 8:04 a.m.     482
10   122 10:20 a.m. to 10:24 a.m.   622
# ℹ 276 more rows
…
JWDPTibble

Unfortunately JWDP has different time codes and ranges than JWAP, so the above process will need to be repeated to create JWDPTibble

JWDP <- fromJSON("Project1DataFiles/JWDP.json") # this JWDP descriptor is from https://api.census.gov/data/2022/acs/acs1/pums/variables/JWDP.json
JWDP <- unlist(JWDP$values$item) # gets to the useful content of the file

JWDPTibble <- as_tibble(names(JWDP)) # begin with just the names of JWDP, which are the codes
JWDPTibble <- mutate(JWDPTibble, string = JWDP) # add a column of the string content
JWDPTibble <- mutate(JWDPTibble, time = sapply(string, StringToTime)) # use StringToTime() to make the third column of time values
JWDPTibble <- mutate(JWDPTibble, value = as.numeric(value)) # convert value to numeric
JWDPTibble

# A tibble: 151 × 3
   value string                    time
   <dbl> <chr>                    <dbl>
 1    14 4:10 a.m. to 4:19 a.m.    254.
 2    15 4:20 a.m. to 4:29 a.m.    264.
 3    17 4:40 a.m. to 4:49 a.m.    284.
 4    22 5:15 a.m. to 5:19 a.m.    317 
 5    35 6:20 a.m. to 6:24 a.m.    382 
 6    46 7:15 a.m. to 7:19 a.m.    437 
 7    65 8:50 a.m. to 8:54 a.m.    532 
 8    68 9:05 a.m. to 9:09 a.m.    547 
 9    76 9:45 a.m. to 9:49 a.m.    587 
10    79 10:00 a.m. to 10:09 a.m.  604.
# ℹ 141 more rows
…
  QCensusParsed[[geoLevel]] <- factor(QCensusParsed[[geoLevel]]) # convert appropriate geoLevel to a factor

  # Consider setting factor labels for catVars and/or geoSubset levels if time allows. 
  
  return(QCensusParsed)
}

Let’s test some uses of QCensus()

system.time(print(QCensus())) # running defaults

# A tibble: 5,962 × 4
   PWGTP  AGEP SEX   state
   <dbl> <dbl> <fct> <fct>
 1    43    73 1     56   
 2    53    73 2     56   
 3   169    35 2     56   
 4   248    14 2     56   
 5   246     9 2     56   
 6   202     7 1     56   
 7    61    72 2     56   
 8    55    38 1     56   
 9    62    32 1     56   
10    73    74 2     56   
# ℹ 5,952 more rows

   user  system elapsed 
   0.08    0.01    0.63 

system.time(print(QCensus(year = 2021, numVars = c("JWAP", "JWDP"), catVars = c("SCHL", "SEX"), geoLevel = "state", geoSubset = "17" ))) # adding some time and categorical variables

# A tibble: 126,623 × 6
   PWGTP  JWAP  JWDP SCHL  SEX   state
   <dbl> <dbl> <dbl> <fct> <fct> <fct>
 1   104    NA    NA 14    1     17   
 2    29    NA    NA 16    2     17   
 3    19    NA    NA 22    2     17   
 4    84    NA    NA 1     1     17   
 5     4    NA    NA 19    1     17   
 6    86    NA    NA 17    1     17   
 7    30    NA    NA 16    2     17   
 8    38    NA    NA 16    2     17   
 9     6    NA    NA 14    2     17   
10     8    NA    NA 16    1     17   
# ℹ 126,613 more rows

   user  system elapsed 
   1.07    0.03    6.94 

system.time(print(QCensus(year = 2018, numVars = c("AGEP", "JWDP", "JWAP", "GRPIP"), catVars = c("FER"), geoLevel = "division", geoSubset = "4" ))) # trying a division and some other variables

# A tibble: 216,441 × 7
   PWGTP  AGEP  JWDP  JWAP GRPIP FER   division
   <dbl> <dbl> <dbl> <dbl> <dbl> <fct> <fct>   
 1    77    27   NA     NA     0 2     4       
 2    73    42   NA     NA     0 0     4       
 3    11    21   NA     NA     0 2     4       
 4    85    20 1244.  1252     0 0     4       
 5    34    14   NA     NA     0 0     4       
 6    60    26   NA     NA     0 0     4       
 7    42    22  724.   732     0 0     4       
 8    28    46  472    492     0 2     4       
 9    20    19   NA     NA     0 2     4       
10   104    21  347    352     0 0     4       
# ℹ 216,431 more rows
…
